module EventMonitor

go 1.22.1

require (
	github.com/maxence-charriere/go-app/v9 v9.8.0
	github.com/redis/go-redis/v9 v9.5.1
)

require (
	github.com/cespare/xxhash/v2 v2.2.0 // indirect
	github.com/dgryski/go-rendezvous v0.0.0-20200823014737-9f7001d12a5f // indirect
	github.com/google/uuid v1.6.0 // indirect
)
